{"help": "Search a DataStore resource.\n\n    The datastore_search action allows you to search data in a resource.\n    DataStore resources that belong to private CKAN resource can only be\n    read by you if you have access to the CKAN resource and send the appropriate\n    authorization.\n\n    :param resource_id: id or alias of the resource to be searched against\n    :type resource_id: string\n    :param filters: matching conditions to select, e.g {\"key1\": \"a\", \"key2\": \"b\"} (optional)\n    :type filters: dictionary\n    :param q: full text query (optional)\n    :type q: string\n    :param plain: treat as plain text query (optional, default: true)\n    :type plain: bool\n    :param language: language of the full text query (optional, default: english)\n    :type language: string\n    :param limit: maximum number of rows to return (optional, default: 100)\n    :type limit: int\n    :param offset: offset this number of rows (optional)\n    :type offset: int\n    :param fields: fields to return (optional, default: all fields in original order)\n    :type fields: list or comma separated string\n    :param sort: comma separated field names with ordering\n                 e.g.: \"fieldname1, fieldname2 desc\"\n    :type sort: string\n\n    Setting the ``plain`` flag to false enables the entire PostgreSQL `full text search query language`_.\n\n    A listing of all available resources can be found at the alias ``_table_metadata``.\n\n    .. _full text search query language: http://www.postgresql.org/docs/9.1/static/datatype-textsearch.html#DATATYPE-TSQUERY\n\n    If you need to download the full resource, read :ref:`dump`.\n\n    **Results:**\n\n    The result of this action is a dictionary with the following keys:\n\n    :rtype: A dictionary with the following keys\n    :param fields: fields/columns and their extra metadata\n    :type fields: list of dictionaries\n    :param offset: query offset value\n    :type offset: int\n    :param limit: query limit value\n    :type limit: int\n    :param filters: query filters\n    :type filters: list of dictionaries\n    :param total: number of total matching records\n    :type total: int\n    :param records: list of matching results\n    :type records: list of dictionaries\n\n    ", "success": true, "result": {"resource_id": "7f84606c-57c4-4821-a43b-bf18408c111b", "fields": [{"type": "int4", "id": "_id"}, {"type": "text", "id": "PermitNum"}, {"type": "text", "id": "Description"}, {"type": "text", "id": "AppliedDate"}, {"type": "text", "id": "IssuedDate"}, {"type": "text", "id": "CompletedDate"}, {"type": "text", "id": "OriginalAddress1"}, {"type": "text", "id": "OriginalCity"}, {"type": "text", "id": "OriginalState"}, {"type": "text", "id": "OriginalZip"}, {"type": "text", "id": "PermitClass"}, {"type": "text", "id": "PermitClassMapped"}, {"type": "text", "id": "StatusCurrent"}, {"type": "text", "id": "StatusCurrentMapped"}, {"type": "text", "id": "WorkClass"}, {"type": "text", "id": "WorkClassMapped"}, {"type": "text", "id": "PermitType"}, {"type": "text", "id": "PermitTypeMapped"}, {"type": "text", "id": "PermitTypeDesc"}, {"type": "text", "id": "StatusDate"}, {"type": "text", "id": "TotalSqFt"}, {"type": "text", "id": "Link"}, {"type": "text", "id": "EstProjectCost"}, {"type": "text", "id": "HousingUnits"}, {"type": "text", "id": "PIN"}, {"type": "text", "id": "ContractorCompanyName"}, {"type": "text", "id": "ContractorTrade"}, {"type": "text", "id": "ContractorTradeMapped"}, {"type": "text", "id": "ContractorLicNum"}, {"type": "text", "id": "ContractorStateLic"}, {"type": "text", "id": "ContractorFullName"}, {"type": "text", "id": "ContractorCompanyDesc"}, {"type": "text", "id": "ContractorPhone"}, {"type": "text", "id": "ContractorAddress1"}, {"type": "text", "id": "ContractorAddress2"}, {"type": "text", "id": "ContractorCity"}, {"type": "text", "id": "ContractorState"}, {"type": "text", "id": "ContractorZip"}, {"type": "text", "id": "ContractorEmail"}, {"type": "text", "id": "ProposedUsed"}, {"type": "text", "id": "AddedSqFt"}, {"type": "text", "id": "MasterPermitNum"}, {"type": "text", "id": "ExpiresDate"}, {"type": "text", "id": "COIssuedDate"}, {"type": "text", "id": "Publisher"}, {"type": "text", "id": "Fee"}, {"type": "text", "id": "LastUpdated"}, {"type": "text", "id": "LAT"}, {"type": "text", "id": "LON"}], "records": [{"Fee": "297.3", "ContractorStateLic": "", "ContractorCompanyDesc": "", "LON": null, "ContractorState": "", "PermitType": "Commercial Alteration or Addition - Plan Check-Permit", "MasterPermitNum": "", "OriginalAddress1": "31957 AQUADUCT RD A ", "ContractorFullName": "", "HousingUnits": "0", "OriginalCity": "BONSALL", "OriginalState": "CA", "ContractorTrade": "", "ContractorEmail": "", "IssuedDate": "2016-03-03", "PermitNum": "PDS2016-COMALT-000098", "Description": "Cross street:  Lilac Rd\r\n\r\nDescription of Work:  100 amp ag meter for existing for irrigation\r\n\r\n*** Using address 31957 Aquaduct \"A\", Bonsall for Ag meter ****", "PIN": "127-221-27-00", "StatusCurrent": "Issued Expired", "ExpiresDate": "", "PermitTypeDesc": "8000 - ACC - Electrical Only", "COIssuedDate": "", "ContractorLicNum": "", "Link": "https://publicservices.sdcounty.ca.gov/citizenaccess/Cap/CapDetail.aspx?Module=Building&TabName=Building&capID1=16CAP&capID2=00000&capID3=00GUQ", "TotalSqFt": "", "EstProjectCost": "", "AddedSqFt": "", "PermitTypeMapped": "Electrical", "CompletedDate": "", "ContractorZip": "", "Publisher": "San Diego - Prod 7.3.3.8.1", "WorkClassMapped": "Existing", "ContractorCity": "", "ContractorPhone": "", "ContractorCompanyName": "", "StatusDate": "2016-10-09", "PermitClass": "Commercial Alteration-Addn", "ProposedUsed": "Cross street:  Lilac Rd\r\n\r\nDescription of Work:  100 amp ag meter for existing for irrigation\r\n\r\n*** Using address 31957 Aquaduct \"A\", Bonsall for Ag meter ****", "StatusCurrentMapped": "Permit Expired", "WorkClass": "Existing", "ContractorTradeMapped": "", "PermitClassMapped": "Non-Residential", "AppliedDate": "2016-02-26", "OriginalZip": "92003", "ContractorAddress2": "", "ContractorAddress1": "", "LastUpdated": "2018-07-28", "LAT": null, "_id": 14724}, {"Fee": "0", "ContractorStateLic": "CA", "ContractorCompanyDesc": "", "LON": "-117.12915539649096", "ContractorState": "CA", "PermitType": "Residential Alteration or Addition - Plan Check-Permit", "MasterPermitNum": "", "OriginalAddress1": "2741 OVERLOOK POINT DR ", "ContractorFullName": "", "HousingUnits": "0", "OriginalCity": "ESCONDIDO", "OriginalState": "CA", "ContractorTrade": "CSLB Contractor", "ContractorEmail": "", "IssuedDate": "2017-03-10", "PermitNum": "PDS2017-RESALT-001720", "Description": "CROSS STREET: Country Club Dr \r\n\r\nDescription of Work: HRA (Online Permit) ROOF MOUNT RESIDENTIAL SOLAR PV FOR EXISTING SFD (No Meter Upgrade).\r\n \r\nPerSection 4620 (i) of the zoning ordinance, roof mounted photovoltaic systems shall not extend more than 5 ft. above the highest point of the existing roof.", "PIN": "", "StatusCurrent": "Completed", "ExpiresDate": "", "PermitTypeDesc": "8002 - REN - (Online) RES Roof Mt Solar PV", "COIssuedDate": "2017-05-15", "ContractorLicNum": "890895", "Link": "https://publicservices.sdcounty.ca.gov/citizenaccess/Cap/CapDetail.aspx?Module=Building&TabName=Building&capID1=17CAP&capID2=00000&capID3=00L44", "TotalSqFt": "", "EstProjectCost": "", "AddedSqFt": "", "PermitTypeMapped": "Electrical", "CompletedDate": "2017-05-16", "ContractorZip": "95134", "Publisher": "San Diego - Prod 7.3.3.8.1", "WorkClassMapped": "Existing", "ContractorCity": "SAN JOSE", "ContractorPhone": "941 720-3850", "ContractorCompanyName": "SUNPOWER CORPORATION SYSTEMS", "StatusDate": "2017-05-16", "PermitClass": "Residential Alteration-Addn", "ProposedUsed": "CROSS STREET: Country Club Dr \n\nDescription of Work: HRA (Online Permit) ROOF MOUNT RESIDENTIAL SOLAR PV FOR EXISTING SFD (No Meter Upgrade).\n \nPerSection 4620 (i) of the zoning ordinance, roof mounted photovoltaic systems shall not extend more than 5 ft. above the highest point of the existing roof.", "StatusCurrentMapped": "Permit Finaled", "WorkClass": "Existing", "ContractorTradeMapped": "", "PermitClassMapped": "Residential", "AppliedDate": "2017-03-10", "OriginalZip": "92029", "ContractorAddress2": "", "ContractorAddress1": "77 RIO ROBLES", "LastUpdated": "2017-05-17", "LAT": "33.102682877405144", "_id": 4}, {"Fee": "0", "ContractorStateLic": "CA", "ContractorCompanyDesc": "", "LON": "-117.13409421967005", "ContractorState": "CA", "PermitType": "Residential Alteration or Addition - Plan Check-Permit", "MasterPermitNum": "", "OriginalAddress1": "2902 HILL VALLEY DR ", "ContractorFullName": "Rich Vallee ", "HousingUnits": "0", "OriginalCity": "ESCONDIDO", "OriginalState": "CA", "ContractorTrade": "CSLB Contractor", "ContractorEmail": "john@inallproducts.com", "IssuedDate": "2017-03-10", "PermitNum": "PDS2017-RESALT-001694", "Description": "CROSS STREET: Country Club Dr \r\n\r\nDescription of Work: HRA (Online Permit) ROOF MOUNT RESIDENTIAL SOLAR PV FOR EXISTING SFD (No Meter Upgrade).\r\n \r\nPerSection 4620 (i) of the zoning ordinance, roof mounted photovoltaic systems shall not extend more than 5 ft. above the highest point of the existing roof.", "PIN": "228-311-29-00", "StatusCurrent": "Completed", "ExpiresDate": "", "PermitTypeDesc": "8002 - REN - (Online) RES Roof Mt Solar PV", "COIssuedDate": "2017-04-03", "ContractorLicNum": "941109", "Link": "https://publicservices.sdcounty.ca.gov/citizenaccess/Cap/CapDetail.aspx?Module=Building&TabName=Building&capID1=17CAP&capID2=00000&capID3=00KZR", "TotalSqFt": "", "EstProjectCost": "", "AddedSqFt": "", "PermitTypeMapped": "Electrical", "CompletedDate": "2017-04-04", "ContractorZip": "92126", "Publisher": "San Diego - Prod 7.3.3.8.1", "WorkClassMapped": "Existing", "ContractorCity": "SAN DIEGO", "ContractorPhone": "858 547-4300", "ContractorCompanyName": "SOLARE ENERGY INC", "StatusDate": "2017-04-04", "PermitClass": "Residential Alteration-Addn", "ProposedUsed": "CROSS STREET: Country Club Dr \r\n\r\nDescription of Work: HRA (Online Permit) ROOF MOUNT RESIDENTIAL SOLAR PV FOR EXISTING SFD (No Meter Upgrade).\r\n \r\nPerSection 4620 (i) of the zoning ordinance, roof mounted photovoltaic systems shall not extend more than 5 ft. above the highest point of the existing roof.", "StatusCurrentMapped": "Permit Finaled", "WorkClass": "Existing", "ContractorTradeMapped": "", "PermitClassMapped": "Residential", "AppliedDate": "2017-03-10", "OriginalZip": "92029", "ContractorAddress2": "", "ContractorAddress1": "9520 PADGETT STREET SUITE 107", "LastUpdated": "2017-04-05", "LAT": "33.125687062519745", "_id": 3}, {"Fee": "0", "ContractorStateLic": "CA", "ContractorCompanyDesc": "", "LON": "-116.91881027648918", "ContractorState": "CA", "PermitType": "Residential Alteration or Addition - Plan Check-Permit", "MasterPermitNum": "", "OriginalAddress1": "9613 LOS COCHES RD ", "ContractorFullName": "", "HousingUnits": "0", "OriginalCity": "LAKESIDE", "OriginalState": "CA", "ContractorTrade": "CSLB Contractor", "ContractorEmail": "sky@precisi9onelectricsolar.com", "IssuedDate": "2017-03-10", "PermitNum": "PDS2017-RESALT-001702", "Description": "CROSS STREET: Castle Ct Dr \r\n\r\nDescription of Work: HRA (Online Permit) ROOF MOUNT RESIDENTIAL SOLAR PV FOR EXISTING SFD (No Meter Upgrade).\r\n \r\nPerSection 4620 (i) of the zoning ordinance, roof mounted photovoltaic systems shall not extend more than 5 ft. above the highest point of the existing roof.", "PIN": "", "StatusCurrent": "Completed", "ExpiresDate": "", "PermitTypeDesc": "8002 - REN - (Online) RES Roof Mt Solar PV", "COIssuedDate": "2017-04-12", "ContractorLicNum": "950065", "Link": "https://publicservices.sdcounty.ca.gov/citizenaccess/Cap/CapDetail.aspx?Module=Building&TabName=Building&capID1=17CAP&capID2=00000&capID3=00L09", "TotalSqFt": "", "EstProjectCost": "", "AddedSqFt": "", "PermitTypeMapped": "Electrical", "CompletedDate": "2017-04-13", "ContractorZip": "92040", "Publisher": "San Diego - Prod 7.3.3.8.1", "WorkClassMapped": "Existing", "ContractorCity": "LAKESIDE", "ContractorPhone": "619 390-2991", "ContractorCompanyName": "K A CARLISLE INC", "StatusDate": "2017-04-13", "PermitClass": "Residential Alteration-Addn", "ProposedUsed": "CROSS STREET: Castle Ct Dr \n\nDescription of Work: HRA (Online Permit) ROOF MOUNT RESIDENTIAL SOLAR PV FOR EXISTING SFD (No Meter Upgrade).\n \nPerSection 4620 (i) of the zoning ordinance, roof mounted photovoltaic systems shall not extend more than 5 ft. above the highest point of the existing roof.", "StatusCurrentMapped": "Permit Finaled", "WorkClass": "Existing", "ContractorTradeMapped": "", "PermitClassMapped": "Residential", "AppliedDate": "2017-03-10", "OriginalZip": "92040", "ContractorAddress2": "", "ContractorAddress1": "8137 WINTER GARDENS BLVD", "LastUpdated": "2017-04-14", "LAT": "32.853222527365553", "_id": 2}, {"Fee": "247", "ContractorStateLic": "", "ContractorCompanyDesc": "", "LON": "-117.0785280642681", "ContractorState": "", "PermitType": "Residential Alteration or Addition - Plan Check-Permit", "MasterPermitNum": "", "OriginalAddress1": "520 WOODLAND HILLS DR ", "ContractorFullName": "", "HousingUnits": "0", "OriginalCity": "ESCONDIDO", "OriginalState": "CA", "ContractorTrade": "", "ContractorEmail": "", "IssuedDate": "2017-05-12", "PermitNum": "PDS2017-RESALT-003648", "Description": "CROSS STREET: Alexander \n\nDescription of Work: Existing Residential Main Electrical Service Upgrade - 200A - (Online Permit)\n\n*The scope of work is limited to upgrade of the existing main service panel.  No new sub-panels or relocation permitted.", "PIN": "", "StatusCurrent": "Completed", "ExpiresDate": "", "PermitTypeDesc": "8070 - ACC - (Online) Electrical - Existing Main Svc Upgrade (Max 400A)", "COIssuedDate": "2017-07-09", "ContractorLicNum": "", "Link": "https://publicservices.sdcounty.ca.gov/citizenaccess/Cap/CapDetail.aspx?Module=Building&TabName=Building&capID1=17CAP&capID2=00000&capID3=016T5", "TotalSqFt": "", "EstProjectCost": "", "AddedSqFt": "", "PermitTypeMapped": "Electrical", "CompletedDate": "2017-07-10", "ContractorZip": "", "Publisher": "San Diego - Prod 7.3.3.8.1", "WorkClassMapped": "Existing", "ContractorCity": "", "ContractorPhone": "", "ContractorCompanyName": "", "StatusDate": "2017-07-10", "PermitClass": "Residential Alteration-Addn", "ProposedUsed": "CROSS STREET: Alexander \n\nDescription of Work: Existing Residential Main Electrical Service Upgrade - 200A - (Online Permit)\n\n*The scope of work is limited to upgrade of the existing main service panel.  No new sub-panels or relocation permitted.", "StatusCurrentMapped": "Permit Finaled", "WorkClass": "Existing", "ContractorTradeMapped": "", "PermitClassMapped": "Residential", "AppliedDate": "2017-05-12", "OriginalZip": "92029", "ContractorAddress2": "", "ContractorAddress1": "", "LastUpdated": "2017-07-11", "LAT": "33.082655491525173", "_id": 78782}], "_links": {"start": "/api/action/datastore_search?limit=5&resource_id=7f84606c-57c4-4821-a43b-bf18408c111b", "next": "/api/action/datastore_search?offset=5&limit=5&resource_id=7f84606c-57c4-4821-a43b-bf18408c111b"}, "limit": 5, "total": 119586}}